{
  "message": "ok",
  "total_records": 82,
  "total_pages": 9,
  "previous": null,
  "next": "https://www.swapi.tech/api/people?page=2&limit=10&expanded=true",
  "results": [
    {
      "properties": {
        "created": "2025-09-06T21:01:13.114Z",
        "edited": "2025-09-06T21:01:13.114Z",
        "name": "Sujeesh Skywalker",
        "gender": "male",
        "skin_color": "fair",
        "hair_color": "blond",
        "height": "172",
        "eye_color": "blue",
        "mass": "77",
        "homeworld": "https://www.swapi.tech/api/planets/1",
        "birth_year": "19BBY",
        "vehicles": [
          "https://www.swapi.tech/api/vehicles/14",
          "https://www.swapi.tech/api/vehicles/30"
        ],
        "starships": ["https://www.swapi.tech/api/starships/12"],
        "films": ["https://www.swapi.tech/api/films/1"],
        "url": "https://www.swapi.tech/api/people/1"
      },
      "_id": "5f63a36eee9fd7000499be42",
      "description": "A person within the Star Wars universe",
      "uid": "1",
      "__v": 4
    },
    {
      "properties": {
        "created": "2025-09-06T21:01:13.114Z",
        "edited": "2025-09-06T21:01:13.114Z",
        "name": "C-3PO",
        "gender": "n/a",
        "skin_color": "gold",
        "hair_color": "n/a",
        "height": "167",
        "eye_color": "yellow",
        "mass": "75",
        "homeworld": "https://www.swapi.tech/api/planets/1",
        "birth_year": "112BBY",
        "vehicles": [],
        "starships": ["https://www.swapi.tech/api/starships/1"],
        "films": [
          "https://www.swapi.tech/api/films/1",
          "https://www.swapi.tech/api/films/2",
          "https://www.swapi.tech/api/films/3",
          "https://www.swapi.tech/api/films/4",
          "https://www.swapi.tech/api/films/5",
          "https://www.swapi.tech/api/films/6"
        ],
        "url": "https://www.swapi.tech/api/people/2"
      },
      "_id": "5f63a36eee9fd7000499be43",
      "description": "A person within the Star Wars universe",
      "uid": "2",
      "__v": 4
    },
    {
      "properties": {
        "created": "2025-09-06T21:01:13.114Z",
        "edited": "2025-09-06T21:01:13.114Z",
        "name": "R2-D2",
        "gender": "n/a",
        "skin_color": "white, blue",
        "hair_color": "n/a",
        "height": "96",
        "eye_color": "red",
        "mass": "32",
        "homeworld": "https://www.swapi.tech/api/planets/8",
        "birth_year": "33BBY",
        "vehicles": [],
        "starships": ["https://www.swapi.tech/api/starships/12"],
        "films": [
          "https://www.swapi.tech/api/films/1",
          "https://www.swapi.tech/api/films/2",
          "https://www.swapi.tech/api/films/3",
          "https://www.swapi.tech/api/films/4",
          "https://www.swapi.tech/api/films/5",
          "https://www.swapi.tech/api/films/6"
        ],
        "url": "https://www.swapi.tech/api/people/3"
      },
      "_id": "5f63a36eee9fd7000499be44",
      "description": "A person within the Star Wars universe",
      "uid": "3",
      "__v": 4
    }
  ],
  "apiVersion": "1.0",
  "timestamp": "2025-09-07T17:09:44.427Z",
  "support": {
    "contact": "admin@swapi.tech",
    "donate": "https://www.paypal.com/donate/?business=2HGAUVTWGR5T2&no_recurring=0&item_name=Support+Swapi+and+keep+the+galaxy%27s+data+free%21+Your+donation+fuels+open-source+innovation+and+helps+us+grow.+Thank+you%21+%F0%9F%9A%80&currency_code=USD",
    "partnerDiscounts": {
      "saberMasters": {
        "link": "https://www.swapi.tech/partner-discount/sabermasters-swapi",
        "details": "Use this link to automatically get $10 off your purchase!"
      },
      "heartMath": {
        "link": "https://www.heartmath.com/ryanc",
        "details": "Looking for some Jedi-like inner peace? Take 10% off your heart-brain coherence tools from the HeartMath Institute!"
      }
    }
  },
  "social": {
    "discord": "https://discord.gg/zWvA6GPeNG",
    "reddit": "https://www.reddit.com/r/SwapiOfficial/",
    "github": "https://github.com/semperry/swapi/blob/main/CONTRIBUTORS.md"
  }
}
